Oscillations - Teaching material
…
Visualizing species

We want to show how species “a” behaves over time. For this, we first have to run a Time course.

timecourse <- runTimeCourse()$result

timecourse
#> # A tibble: 801 x 4
#>     Time     a     b     c
#>    <dbl> <dbl> <dbl> <dbl>
#>  1  0     8.00  8.00 8.00 
#>  2  0.05  6.77  8.00 6.26 
#>  3  0.1   6.31  8.22 3.37 
#>  4  0.15  6.33  8.32 0.232
#>  5  0.2   6.53  8.39 0.249
#>  6  0.25  6.64  8.57 0.316
#>  7  0.3   6.77  8.50 0.266
#>  8  0.35  7.16  8.55 0.183
#>  9  0.4   7.46  8.63 0.448
#> 10  0.45  7.92  8.68 0.531
#> # ... with 791 more rows
…
