Parameter Estimation
…
fit_experiments <- defineExperiments(
  data = data,
  type = c("time", "dependent", "dependent"),
  mapping = c(NA, "{[Mos-P]}", "{[Erk2-P]}"),
  weight_method = "mean_square"
)

3. Define Parameters

We now have to define parameters that will be fitted.

First, let us take a look at all the parameters in the model:

getParameters()
#> # A tibble: 22 x 5
#>    key                 name  reaction          value mapping
#>    <chr>               <chr> <chr>             <dbl> <chr>  
#>  1 (MAPKKK activation~ V1    MAPKKK activati~  2.5   <NA>   
#>  2 (MAPKKK activation~ Ki    MAPKKK activati~  9     <NA>   
#>  3 (MAPKKK activation~ n     MAPKKK activati~  1     <NA>   
#>  4 (MAPKKK activation~ K1    MAPKKK activati~ 10     <NA>   
#>  5 (MAPKKK inactivati~ V2    MAPKKK inactiva~  0.25  <NA>   
#>  6 (MAPKKK inactivati~ KK2   MAPKKK inactiva~  8     <NA>   
#>  7 (phosphorylation o~ k3    phosphorylation~  0.025 <NA>   
#>  8 (phosphorylation o~ KK3   phosphorylation~ 15     <NA>   
#>  9 (phosphorylation o~ k4    phosphorylation~  0.025 <NA>   
#> 10 (phosphorylation o~ KK4   phosphorylation~ 15     <NA>   
#> # ... with 12 more rows
…
