Michaelis Menten Kinetics
…
As you can see, the species in the model all start with a concentration of 1. This obviously does not make sense for our model, because at the beginning, we don’t want there to be any complex or product. Also, we will need to make sure that there is a lot more substrate than complex (as this is one of the assumptions). The reactions look fine; the rate law is automatically set to Mass Action Kinetics, which is (as you will see below) needed for Michaelis-Menten Kinetics.

setSpecies(key = species(), initial_concentration = c(1,20,0,0))

Now, we want to know how our model behaves. For this, we will simulate how our species interact with each other in a time course. The runTimeCourse() command gives us a list with a lot of different aspects, but for now, only the “result” section is interesting to us.

timecourse <- runTimeCourse(duration = 1000, dt = 1)$result

We will now need to reshape the data to make it printable with ggplot.

#Reshape
timecourse <- pivot_longer(timecourse, -Time, values_to = "Concentration", names_to = "Species")

timecourse
#> # A tibble: 4,004 x 3
#>     Time Species Concentration
#>    <dbl> <chr>           <dbl>
#>  1     0 E              1     
#>  2     0 S             20     
#>  3     0 SE             0     
#>  4     0 P              0     
#>  5     1 E              0.200 
#>  6     1 S             19.1   
#>  7     1 SE             0.800 
#>  8     1 P              0.0536
#>  9     2 E              0.108 
#> 10     2 S             19.0   
#> # ... with 3,994 more rows
…
