Oscillations
…
Visualizing species

We want to show how species a behaves over time. For this, we first have to run a time course.

timecourse <- runTimeCourse()$result

timecourse
#> # A tibble: 801 x 4
#>     Time     a     b     c
#>    <dbl> <dbl> <dbl> <dbl>
#>  1  0     8.00  8.00 8.00 
#>  2  0.05  7.11  8.19 6.29 
#>  3  0.1   6.81  8.29 3.69 
#>  4  0.15  6.61  8.30 0.930
#>  5  0.2   7.07  8.30 0.216
#>  6  0.25  7.37  8.37 0.249
#>  7  0.3   7.56  8.44 0.399
#>  8  0.35  7.99  8.45 0.349
#>  9  0.4   8.60  8.49 0.598
#> 10  0.45  9.00  8.70 0.316
#> # ... with 791 more rows
…
