Parallel processing with CoRC
…
plotdata <-
  timeseries %>%
  bind_rows() %>%
  group_by(Time) %>%
  # calculate mean and sd for all time points
  summarise(across(everything(), list(mean = base::mean, sd = stats::sd)), .groups = "drop") %>%
  # gather all values so the column `name` identifies "a_mean", "b_sd" etc.
  pivot_longer(-Time) %>%
  # split up information on species (a, b, c) and type of value (mean, sd)
  separate(name, c("species", "type"), "_") %>%
  pivot_wider(names_from = type, values_from = value)

plotdata
#> # A tibble: 2,403 × 4
#>     Time species  mean    sd
#>    <dbl> <chr>   <dbl> <dbl>
#>  1  0    a        8.00 0    
#>  2  0    b        8.00 0    
#>  3  0    c        8.00 0    
#>  4  0.05 a        7.06 0.249
#>  5  0.05 b        8.12 0.117
#>  6  0.05 c        5.60 0.442
#>  7  0.1  a        6.57 0.357
#>  8  0.1  b        8.18 0.160
#>  9  0.1  c        2.84 0.580
#> 10  0.15 a        6.60 0.449
#> # … with 2,393 more rows
…
