Parameter Estimation
…
3. Define Parameters

We now have to define parameters that will be fitted.

First, let us take a look at all the parameters in the model:

getParameters()

## # A tibble: 22 x 5
##    key                             name  reaction                  value mapping
##    <chr>                           <chr> <chr>                     <dbl> <chr>  
##  1 (MAPKKK activation).V1          V1    MAPKKK activation         2.5   <NA>   
##  2 (MAPKKK activation).Ki          Ki    MAPKKK activation         9     <NA>   
##  3 (MAPKKK activation).n           n     MAPKKK activation         1     <NA>   
##  4 (MAPKKK activation).K1          K1    MAPKKK activation        10     <NA>   
##  5 (MAPKKK inactivation).V2        V2    MAPKKK inactivation       0.25  <NA>   
##  6 (MAPKKK inactivation).KK2       KK2   MAPKKK inactivation       8     <NA>   
##  7 (phosphorylation of MAPKK).k3   k3    phosphorylation of MAPKK  0.025 <NA>   
##  8 (phosphorylation of MAPKK).KK3  KK3   phosphorylation of MAPKK 15     <NA>   
##  9 (phosphorylation of MAPKK-P).k4 k4    phosphorylation of MAPK~  0.025 <NA>   
## 10 (phosphorylation of MAPKK-P).K~ KK4   phosphorylation of MAPK~ 15     <NA>   
## # ... with 12 more rows
…
